rundir/waves.vcd
$date
	Thu Apr 02 01:46:30 2026
$end
$version
	QuestaSim Version 10.7c
$end
$timescale
	1ns
$end

$scope module testbench $end
$var reg 1 ! pclk $end
$var reg 1 " presetn $end
$var reg 32 # paddr [31:0] $end
$var reg 1 $ psel $end
$var reg 1 % penable $end
$var reg 1 & pwrite $end
$var reg 32 ' prdata [31:0] $end
$var reg 32 ( pwdata [31:0] $end
$var reg 1 ) pready $end
$var reg 2 * master_apb_phase [1:0] $end
$var reg 8 + master_write_count [7:0] $end
$var reg 8 , master_read_count [7:0] $end
$var reg 1 - master_protocol_error $end
$var reg 32 . slave_prdata_out [31:0] $end
$var reg 8 / slave_write_count [7:0] $end
$var reg 8 0 slave_read_count [7:0] $end
$var reg 1 1 slave_access_valid $end

$scope module u_apb_master $end
$var wire 1 2 PCLK $end
$var wire 1 3 PRESET_N $end
$var wire 1 4 PSEL $end
$var wire 1 5 PENABLE $end
$var wire 1 6 PWRITE $end
$var wire 1 7 PREADY $end
$var wire 1 8 PADDR [31] $end
$var wire 1 9 PADDR [30] $end
$var wire 1 : PADDR [29] $end
$var wire 1 ; PADDR [28] $end
$var wire 1 < PADDR [27] $end
$var wire 1 = PADDR [26] $end
$var wire 1 > PADDR [25] $end
$var wire 1 ? PADDR [24] $end
$var wire 1 @ PADDR [23] $end
$var wire 1 A PADDR [22] $end
$var wire 1 B PADDR [21] $end
$var wire 1 C PADDR [20] $end
$var wire 1 D PADDR [19] $end
$var wire 1 E PADDR [18] $end
$var wire 1 F PADDR [17] $end
$var wire 1 G PADDR [16] $end
$var wire 1 H PADDR [15] $end
$var wire 1 I PADDR [14] $end
$var wire 1 J PADDR [13] $end
$var wire 1 K PADDR [12] $end
$var wire 1 L PADDR [11] $end
$var wire 1 M PADDR [10] $end
$var wire 1 N PADDR [9] $end
$var wire 1 O PADDR [8] $end
$var wire 1 P PADDR [7] $end
$var wire 1 Q PADDR [6] $end
$var wire 1 R PADDR [5] $end
$var wire 1 S PADDR [4] $end
$var wire 1 T PADDR [3] $end
$var wire 1 U PADDR [2] $end
$var wire 1 V PADDR [1] $end
$var wire 1 W PADDR [0] $end
$var wire 1 X PWDATA [31] $end
$var wire 1 Y PWDATA [30] $end
$var wire 1 Z PWDATA [29] $end
$var wire 1 [ PWDATA [28] $end
$var wire 1 \ PWDATA [27] $end
$var wire 1 ] PWDATA [26] $end
$var wire 1 ^ PWDATA [25] $end
$var wire 1 _ PWDATA [24] $end
$var wire 1 ` PWDATA [23] $end
$var wire 1 a PWDATA [22] $end
$var wire 1 b PWDATA [21] $end
$var wire 1 c PWDATA [20] $end
$var wire 1 d PWDATA [19] $end
$var wire 1 e PWDATA [18] $end
$var wire 1 f PWDATA [17] $end
$var wire 1 g PWDATA [16] $end
$var wire 1 h PWDATA [15] $end
$var wire 1 i PWDATA [14] $end
$var wire 1 j PWDATA [13] $end
$var wire 1 k PWDATA [12] $end
$var wire 1 l PWDATA [11] $end
$var wire 1 m PWDATA [10] $end
$var wire 1 n PWDATA [9] $end
$var wire 1 o PWDATA [8] $end
$var wire 1 p PWDATA [7] $end
$var wire 1 q PWDATA [6] $end
$var wire 1 r PWDATA [5] $end
$var wire 1 s PWDATA [4] $end
$var wire 1 t PWDATA [3] $end
$var wire 1 u PWDATA [2] $end
$var wire 1 v PWDATA [1] $end
$var wire 1 w PWDATA [0] $end
$var wire 1 x PRDATA [31] $end
$var wire 1 y PRDATA [30] $end
$var wire 1 z PRDATA [29] $end
$var wire 1 { PRDATA [28] $end
$var wire 1 | PRDATA [27] $end
$var wire 1 } PRDATA [26] $end
$var wire 1 ~ PRDATA [25] $end
$var wire 1 !! PRDATA [24] $end
$var wire 1 "! PRDATA [23] $end
$var wire 1 #! PRDATA [22] $end
$var wire 1 $! PRDATA [21] $end
$var wire 1 %! PRDATA [20] $end
$var wire 1 &! PRDATA [19] $end
$var wire 1 '! PRDATA [18] $end
$var wire 1 (! PRDATA [17] $end
$var wire 1 )! PRDATA [16] $end
$var wire 1 *! PRDATA [15] $end
$var wire 1 +! PRDATA [14] $end
$var wire 1 ,! PRDATA [13] $end
$var wire 1 -! PRDATA [12] $end
$var wire 1 .! PRDATA [11] $end
$var wire 1 /! PRDATA [10] $end
$var wire 1 0! PRDATA [9] $end
$var wire 1 1! PRDATA [8] $end
$var wire 1 2! PRDATA [7] $end
$var wire 1 3! PRDATA [6] $end
$var wire 1 4! PRDATA [5] $end
$var wire 1 5! PRDATA [4] $end
$var wire 1 6! PRDATA [3] $end
$var wire 1 7! PRDATA [2] $end
$var wire 1 8! PRDATA [1] $end
$var wire 1 9! PRDATA [0] $end
$var reg 2 :! apb_phase [1:0] $end
$var reg 8 ;! write_count [7:0] $end
$var reg 8 <! read_count [7:0] $end
$var reg 1 =! protocol_error $end
$upscope $end

$scope module u_apb_slave $end
$var wire 1 >! PCLK $end
$var wire 1 ?! PRESET_N $end
$var wire 1 @! PSEL $end
$var wire 1 A! PENABLE $end
$var wire 1 B! PWRITE $end
$var wire 1 C! PADDR [31] $end
$var wire 1 D! PADDR [30] $end
$var wire 1 E! PADDR [29] $end
$var wire 1 F! PADDR [28] $end
$var wire 1 G! PADDR [27] $end
$var wire 1 H! PADDR [26] $end
$var wire 1 I! PADDR [25] $end
$var wire 1 J! PADDR [24] $end
$var wire 1 K! PADDR [23] $end
$var wire 1 L! PADDR [22] $end
$var wire 1 M! PADDR [21] $end
$var wire 1 N! PADDR [20] $end
$var wire 1 O! PADDR [19] $end
$var wire 1 P! PADDR [18] $end
$var wire 1 Q! PADDR [17] $end
$var wire 1 R! PADDR [16] $end
$var wire 1 S! PADDR [15] $end
$var wire 1 T! PADDR [14] $end
$var wire 1 U! PADDR [13] $end
$var wire 1 V! PADDR [12] $end
$var wire 1 W! PADDR [11] $end
$var wire 1 X! PADDR [10] $end
$var wire 1 Y! PADDR [9] $end
$var wire 1 Z! PADDR [8] $end
$var wire 1 [! PADDR [7] $end
$var wire 1 \! PADDR [6] $end
$var wire 1 ]! PADDR [5] $end
$var wire 1 ^! PADDR [4] $end
$var wire 1 _! PADDR [3] $end
$var wire 1 `! PADDR [2] $end
$var wire 1 a! PADDR [1] $end
$var wire 1 b! PADDR [0] $end
$var wire 1 c! PWDATA [31] $end
$var wire 1 d! PWDATA [30] $end
$var wire 1 e! PWDATA [29] $end
$var wire 1 f! PWDATA [28] $end
$var wire 1 g! PWDATA [27] $end
$var wire 1 h! PWDATA [26] $end
$var wire 1 i! PWDATA [25] $end
$var wire 1 j! PWDATA [24] $end
$var wire 1 k! PWDATA [23] $end
$var wire 1 l! PWDATA [22] $end
$var wire 1 m! PWDATA [21] $end
$var wire 1 n! PWDATA [20] $end
$var wire 1 o! PWDATA [19] $end
$var wire 1 p! PWDATA [18] $end
$var wire 1 q! PWDATA [17] $end
$var wire 1 r! PWDATA [16] $end
$var wire 1 s! PWDATA [15] $end
$var wire 1 t! PWDATA [14] $end
$var wire 1 u! PWDATA [13] $end
$var wire 1 v! PWDATA [12] $end
$var wire 1 w! PWDATA [11] $end
$var wire 1 x! PWDATA [10] $end
$var wire 1 y! PWDATA [9] $end
$var wire 1 z! PWDATA [8] $end
$var wire 1 {! PWDATA [7] $end
$var wire 1 |! PWDATA [6] $end
$var wire 1 }! PWDATA [5] $end
$var wire 1 ~! PWDATA [4] $end
$var wire 1 !" PWDATA [3] $end
$var wire 1 "" PWDATA [2] $end
$var wire 1 #" PWDATA [1] $end
$var wire 1 $" PWDATA [0] $end
$var reg 32 %" PRDATA_out [31:0] $end
$var reg 8 &" write_count [7:0] $end
$var reg 8 '" read_count [7:0] $end
$var reg 1 (" access_valid $end
$var reg 8 )" i [7:0] $end
$upscope $end
$upscope $end
$enddefinitions $end
#0
$dumpvars
0!
1"
b0 #
0$
0%
0&
b0 '
b0 (
0)
b0 *
bx +
bx ,
x-
bx .
bx /
bx 0
01
b0 :!
bx ;!
bx <!
x=!
bx %"
bx &"
bx '"
0("
bx )"
0$"
0#"
0""
0!"
0~!
0}!
0|!
0{!
0z!
0y!
0x!
0w!
0v!
0u!
0t!
0s!
0r!
0q!
0p!
0o!
0n!
0m!
0l!
0k!
0j!
0i!
0h!
0g!
0f!
0e!
0d!
0c!
0b!
0a!
0`!
0_!
0^!
0]!
0\!
0[!
0Z!
0Y!
0X!
0W!
0V!
0U!
0T!
0S!
0R!
0Q!
0P!
0O!
0N!
0M!
0L!
0K!
0J!
0I!
0H!
0G!
0F!
0E!
0D!
0C!
0B!
0A!
0@!
1?!
0>!
09!
08!
07!
06!
05!
04!
03!
02!
01!
00!
0/!
0.!
0-!
0,!
0+!
0*!
0)!
0(!
0'!
0&!
0%!
0$!
0#!
0"!
0!!
0~
0}
0|
0{
0z
0y
0x
0w
0v
0u
0t
0s
0r
0q
0p
0o
0n
0m
0l
0k
0j
0i
0h
0g
0f
0e
0d
0c
0b
0a
0`
0_
0^
0]
0\
0[
0Z
0Y
0X
0W
0V
0U
0T
0S
0R
0Q
0P
0O
0N
0M
0L
0K
0J
0I
0H
0G
0F
0E
0D
0C
0B
0A
0@
0?
0>
0=
0<
0;
0:
09
08
07
06
05
04
13
02
$end
#10
1!
12
1>!
0=!
0-
#20
0!
02
0>!
#30
1!
12
1>!
#40
0!
02
0>!
#50
1!
12
1>!
#60
0!
02
0>!
#70
1!
12
1>!
#80
0!
02
0>!
#90
1!
12
1>!
#100
0!
02
0>!
#110
1!
12
1>!
#120
0!
02
0>!
#130
1!
12
1>!
#140
0!
02
0>!
#150
1!
12
1>!
#160
0!
02
0>!
#170
1!
12
1>!
#180
0!
02
0>!
#190
1!
12
1>!
#200
0"
0!
03
0?!
02
0>!
b0 )"
b1 )"
b10 )"
b11 )"
b100 )"
b101 )"
b110 )"
b111 )"
b1000 )"
b1001 )"
b1010 )"
b1011 )"
b1100 )"
b1101 )"
b1110 )"
b1111 )"
b10000 )"
b10001 )"
b10010 )"
b10011 )"
b10100 )"
b10101 )"
b10110 )"
b10111 )"
b11000 )"
b11001 )"
b11010 )"
b11011 )"
b11100 )"
b11101 )"
b11110 )"
b11111 )"
b100000 )"
b100001 )"
b100010 )"
b100011 )"
b100100 )"
b100101 )"
b100110 )"
b100111 )"
b101000 )"
b101001 )"
b101010 )"
b101011 )"
b101100 )"
b101101 )"
b101110 )"
b101111 )"
b110000 )"
b110001 )"
b110010 )"
b110011 )"
b110100 )"
b110101 )"
b110110 )"
b110111 )"
b111000 )"
b111001 )"
b111010 )"
b111011 )"
b111100 )"
b111101 )"
b111110 )"
b111111 )"
b1000000 )"
b1000001 )"
b1000010 )"
b1000011 )"
b1000100 )"
b1000101 )"
b1000110 )"
b1000111 )"
b1001000 )"
b1001001 )"
b1001010 )"
b1001011 )"
b1001100 )"
b1001101 )"
b1001110 )"
b1001111 )"
b1010000 )"
b1010001 )"
b1010010 )"
b1010011 )"
b1010100 )"
b1010101 )"
b1010110 )"
b1010111 )"
b1011000 )"
b1011001 )"
b1011010 )"
b1011011 )"
b1011100 )"
b1011101 )"
b1011110 )"
b1011111 )"
b1100000 )"
b1100001 )"
b1100010 )"
b1100011 )"
b1100100 )"
b1100101 )"
b1100110 )"
b1100111 )"
b1101000 )"
b1101001 )"
b1101010 )"
b1101011 )"
b1101100 )"
b1101101 )"
b1101110 )"
b1101111 )"
b1110000 )"
b1110001 )"
b1110010 )"
b1110011 )"
b1110100 )"
b1110101 )"
b1110110 )"
b1110111 )"
b1111000 )"
b1111001 )"
b1111010 )"
b1111011 )"
b1111100 )"
b1111101 )"
b1111110 )"
b1111111 )"
b10000000 )"
b10000001 )"
b10000010 )"
b10000011 )"
b10000100 )"
b10000101 )"
b10000110 )"
b10000111 )"
b10001000 )"
b10001001 )"
b10001010 )"
b10001011 )"
b10001100 )"
b10001101 )"
b10001110 )"
b10001111 )"
b10010000 )"
b10010001 )"
b10010010 )"
b10010011 )"
b10010100 )"
b10010101 )"
b10010110 )"
b10010111 )"
b10011000 )"
b10011001 )"
b10011010 )"
b10011011 )"
b10011100 )"
b10011101 )"
b10011110 )"
b10011111 )"
b10100000 )"
b10100001 )"
b10100010 )"
b10100011 )"
b10100100 )"
b10100101 )"
b10100110 )"
b10100111 )"
b10101000 )"
b10101001 )"
b10101010 )"
b10101011 )"
b10101100 )"
b10101101 )"
b10101110 )"
b10101111 )"
b10110000 )"
b10110001 )"
b10110010 )"
b10110011 )"
b10110100 )"
b10110101 )"
b10110110 )"
b10110111 )"
b10111000 )"
b10111001 )"
b10111010 )"
b10111011 )"
b10111100 )"
b10111101 )"
b10111110 )"
b10111111 )"
b11000000 )"
b11000001 )"
b11000010 )"
b11000011 )"
b11000100 )"
b11000101 )"
b11000110 )"
b11000111 )"
b11001000 )"
b11001001 )"
b11001010 )"
b11001011 )"
b11001100 )"
b11001101 )"
b11001110 )"
b11001111 )"
b11010000 )"
b11010001 )"
b11010010 )"
b11010011 )"
b11010100 )"
b11010101 )"
b11010110 )"
b11010111 )"
b11011000 )"
b11011001 )"
b11011010 )"
b11011011 )"
b11011100 )"
b11011101 )"
b11011110 )"
b11011111 )"
b11100000 )"
b11100001 )"
b11100010 )"
b11100011 )"
b11100100 )"
b11100101 )"
b11100110 )"
b11100111 )"
b11101000 )"
b11101001 )"
b11101010 )"
b11101011 )"
b11101100 )"
b11101101 )"
b11101110 )"
b11101111 )"
b11110000 )"
b11110001 )"
b11110010 )"
b11110011 )"
b11110100 )"
b11110101 )"
b11110110 )"
b11110111 )"
b11111000 )"
b11111001 )"
b11111010 )"
b11111011 )"
b11111100 )"
b11111101 )"
b11111110 )"
b11111111 )"
b0 )"
b0 &"
b0 '"
b0 %"
b0 ;!
b0 <!
b0 ,
b0 +
b0 .
b0 0
b0 /
#210
1!
12
1>!
b1 )"
b10 )"
b11 )"
b100 )"
b101 )"
b110 )"
b111 )"
b1000 )"
b1001 )"
b1010 )"
b1011 )"
b1100 )"
b1101 )"
b1110 )"
b1111 )"
b10000 )"
b10001 )"
b10010 )"
b10011 )"
b10100 )"
b10101 )"
b10110 )"
b10111 )"
b11000 )"
b11001 )"
b11010 )"
b11011 )"
b11100 )"
b11101 )"
b11110 )"
b11111 )"
b100000 )"
b100001 )"
b100010 )"
b100011 )"
b100100 )"
b100101 )"
b100110 )"
b100111 )"
b101000 )"
b101001 )"
b101010 )"
b101011 )"
b101100 )"
b101101 )"
b101110 )"
b101111 )"
b110000 )"
b110001 )"
b110010 )"
b110011 )"
b110100 )"
b110101 )"
b110110 )"
b110111 )"
b111000 )"
b111001 )"
b111010 )"
b111011 )"
b111100 )"
b111101 )"
b111110 )"
b111111 )"
b1000000 )"
b1000001 )"
b1000010 )"
b1000011 )"
b1000100 )"
b1000101 )"
b1000110 )"
b1000111 )"
b1001000 )"
b1001001 )"
b1001010 )"
b1001011 )"
b1001100 )"
b1001101 )"
b1001110 )"
b1001111 )"
b1010000 )"
b1010001 )"
b1010010 )"
b1010011 )"
b1010100 )"
b1010101 )"
b1010110 )"
b1010111 )"
b1011000 )"
b1011001 )"
b1011010 )"
b1011011 )"
b1011100 )"
b1011101 )"
b1011110 )"
b1011111 )"
b1100000 )"
b1100001 )"
b1100010 )"
b1100011 )"
b1100100 )"
b1100101 )"
b1100110 )"
b1100111 )"
b1101000 )"
b1101001 )"
b1101010 )"
b1101011 )"
b1101100 )"
b1101101 )"
b1101110 )"
b1101111 )"
b1110000 )"
b1110001 )"
b1110010 )"
b1110011 )"
b1110100 )"
b1110101 )"
b1110110 )"
b1110111 )"
b1111000 )"
b1111001 )"
b1111010 )"
b1111011 )"
b1111100 )"
b1111101 )"
b1111110 )"
b1111111 )"
b10000000 )"
b10000001 )"
b10000010 )"
b10000011 )"
b10000100 )"
b10000101 )"
b10000110 )"
b10000111 )"
b10001000 )"
b10001001 )"
b10001010 )"
b10001011 )"
b10001100 )"
b10001101 )"
b10001110 )"
b10001111 )"
b10010000 )"
b10010001 )"
b10010010 )"
b10010011 )"
b10010100 )"
b10010101 )"
b10010110 )"
b10010111 )"
b10011000 )"
b10011001 )"
b10011010 )"
b10011011 )"
b10011100 )"
b10011101 )"
b10011110 )"
b10011111 )"
b10100000 )"
b10100001 )"
b10100010 )"
b10100011 )"
b10100100 )"
b10100101 )"
b10100110 )"
b10100111 )"
b10101000 )"
b10101001 )"
b10101010 )"
b10101011 )"
b10101100 )"
b10101101 )"
b10101110 )"
b10101111 )"
b10110000 )"
b10110001 )"
b10110010 )"
b10110011 )"
b10110100 )"
b10110101 )"
b10110110 )"
b10110111 )"
b10111000 )"
b10111001 )"
b10111010 )"
b10111011 )"
b10111100 )"
b10111101 )"
b10111110 )"
b10111111 )"
b11000000 )"
b11000001 )"
b11000010 )"
b11000011 )"
b11000100 )"
b11000101 )"
b11000110 )"
b11000111 )"
b11001000 )"
b11001001 )"
b11001010 )"
b11001011 )"
b11001100 )"
b11001101 )"
b11001110 )"
b11001111 )"
b11010000 )"
b11010001 )"
b11010010 )"
b11010011 )"
b11010100 )"
b11010101 )"
b11010110 )"
b11010111 )"
b11011000 )"
b11011001 )"
b11011010 )"
b11011011 )"
b11011100 )"
b11011101 )"
b11011110 )"
b11011111 )"
b11100000 )"
b11100001 )"
b11100010 )"
b11100011 )"
b11100100 )"
b11100101 )"
b11100110 )"
b11100111 )"
b11101000 )"
b11101001 )"
b11101010 )"
b11101011 )"
b11101100 )"
b11101101 )"
b11101110 )"
b11101111 )"
b11110000 )"
b11110001 )"
b11110010 )"
b11110011 )"
b11110100 )"
b11110101 )"
b11110110 )"
b11110111 )"
b11111000 )"
b11111001 )"
b11111010 )"
b11111011 )"
b11111100 )"
b11111101 )"
b11111110 )"
b11111111 )"
b0 )"
#220
0!
02
0>!
#230
1!
12
1>!
b1 )"
b10 )"
b11 )"
b100 )"
b101 )"
b110 )"
b111 )"
b1000 )"
b1001 )"
b1010 )"
b1011 )"
b1100 )"
b1101 )"
b1110 )"
b1111 )"
b10000 )"
b10001 )"
b10010 )"
b10011 )"
b10100 )"
b10101 )"
b10110 )"
b10111 )"
b11000 )"
b11001 )"
b11010 )"
b11011 )"
b11100 )"
b11101 )"
b11110 )"
b11111 )"
b100000 )"
b100001 )"
b100010 )"
b100011 )"
b100100 )"
b100101 )"
b100110 )"
b100111 )"
b101000 )"
b101001 )"
b101010 )"
b101011 )"
b101100 )"
b101101 )"
b101110 )"
b101111 )"
b110000 )"
b110001 )"
b110010 )"
b110011 )"
b110100 )"
b110101 )"
b110110 )"
b110111 )"
b111000 )"
b111001 )"
b111010 )"
b111011 )"
b111100 )"
b111101 )"
b111110 )"
b111111 )"
b1000000 )"
b1000001 )"
b1000010 )"
b1000011 )"
b1000100 )"
b1000101 )"
b1000110 )"
b1000111 )"
b1001000 )"
b1001001 )"
b1001010 )"
b1001011 )"
b1001100 )"
b1001101 )"
b1001110 )"
b1001111 )"
b1010000 )"
b1010001 )"
b1010010 )"
b1010011 )"
b1010100 )"
b1010101 )"
b1010110 )"
b1010111 )"
b1011000 )"
b1011001 )"
b1011010 )"
b1011011 )"
b1011100 )"
b1011101 )"
b1011110 )"
b1011111 )"
b1100000 )"
b1100001 )"
b1100010 )"
b1100011 )"
b1100100 )"
b1100101 )"
b1100110 )"
b1100111 )"
b1101000 )"
b1101001 )"
b1101010 )"
b1101011 )"
b1101100 )"
b1101101 )"
b1101110 )"
b1101111 )"
b1110000 )"
b1110001 )"
b1110010 )"
b1110011 )"
b1110100 )"
b1110101 )"
b1110110 )"
b1110111 )"
b1111000 )"
b1111001 )"
b1111010 )"
b1111011 )"
b1111100 )"
b1111101 )"
b1111110 )"
b1111111 )"
b10000000 )"
b10000001 )"
b10000010 )"
b10000011 )"
b10000100 )"
b10000101 )"
b10000110 )"
b10000111 )"
b10001000 )"
b10001001 )"
b10001010 )"
b10001011 )"
b10001100 )"
b10001101 )"
b10001110 )"
b10001111 )"
b10010000 )"
b10010001 )"
b10010010 )"
b10010011 )"
b10010100 )"
b10010101 )"
b10010110 )"
b10010111 )"
b10011000 )"
b10011001 )"
b10011010 )"
b10011011 )"
b10011100 )"
b10011101 )"
b10011110 )"
b10011111 )"
b10100000 )"
b10100001 )"
b10100010 )"
b10100011 )"
b10100100 )"
b10100101 )"
b10100110 )"
b10100111 )"
b10101000 )"
b10101001 )"
b10101010 )"
b10101011 )"
b10101100 )"
b10101101 )"
b10101110 )"
b10101111 )"
b10110000 )"
b10110001 )"
b10110010 )"
b10110011 )"
b10110100 )"
b10110101 )"
b10110110 )"
b10110111 )"
b10111000 )"
b10111001 )"
b10111010 )"
b10111011 )"
b10111100 )"
b10111101 )"
b10111110 )"
b10111111 )"
b11000000 )"
b11000001 )"
b11000010 )"
b11000011 )"
b11000100 )"
b11000101 )"
b11000110 )"
b11000111 )"
b11001000 )"
b11001001 )"
b11001010 )"
b11001011 )"
b11001100 )"
b11001101 )"
b11001110 )"
b11001111 )"
b11010000 )"
b11010001 )"
b11010010 )"
b11010011 )"
b11010100 )"
b11010101 )"
b11010110 )"
b11010111 )"
b11011000 )"
b11011001 )"
b11011010 )"
b11011011 )"
b11011100 )"
b11011101 )"
b11011110 )"
b11011111 )"
b11100000 )"
b11100001 )"
b11100010 )"
b11100011 )"
b11100100 )"
b11100101 )"
b11100110 )"
b11100111 )"
b11101000 )"
b11101001 )"
b11101010 )"
b11101011 )"
b11101100 )"
b11101101 )"
b11101110 )"
b11101111 )"
b11110000 )"
b11110001 )"
b11110010 )"
b11110011 )"
b11110100 )"
b11110101 )"
b11110110 )"
b11110111 )"
b11111000 )"
b11111001 )"
b11111010 )"
b11111011 )"
b11111100 )"
b11111101 )"
b11111110 )"
b11111111 )"
b0 )"
#240
1"
0!
13
1?!
02
0>!
#250
1!
12
1>!
b1 )"
#260
0!
02
0>!
#270
1!
12
1>!
b10 )"
#280
0!
02
0>!
#290
1!
12
1>!
b11 )"
#300
0!
02
0>!
#310
1!
12
1>!
b100 )"
#320
0!
02
0>!
#330
1!
12
1>!
b101 )"
#340
0!
02
0>!
#350
1!
12
1>!
b110 )"
#360
0!
02
0>!
#370
1!
12
1>!
b111 )"
#380
0!
02
0>!
#390
1!
12
1>!
b1000 )"
#400
0!
02
0>!
#410
1!
12
1>!
b1001 )"
#420
0!
02
0>!
#430
1!
12
1>!
b1010 )"
b11101000010010100011101010100001 (
1&
b1101100111000101011100100100001 #
1$
16
1B!
1b!
1]!
1Z!
1W!
1V!
1U!
1S!
1Q!
1M!
1L!
1K!
1H!
1G!
1E!
1D!
1W
1R
1O
1L
1K
1J
1H
1F
1B
1A
1@
1=
1<
1:
19
1$"
1}!
1{!
1y!
1w!
1v!
1u!
1q!
1o!
1l!
1g!
1e!
1d!
1c!
1w
1r
1p
1n
1l
1k
1j
1f
1d
1a
1\
1Z
1Y
1X
14
1@!
b1 :!
b1 *
#440
0!
02
0>!
#450
1!
12
1>!
b1011 )"
1%
15
1A!
1("
b10 :!
b10 *
11
#460
0!
02
0>!
#470
1!
12
1>!
b1100 )"
b1 &"
1)
b1 /
17
#480
0!
02
0>!
#490
1!
12
1>!
b1101 )"
b10 &"
b1 ;!
0%
0$
b1 +
b10 /
05
0A!
04
0@!
0("
b0 :!
b0 *
01
0)
07
#500
0!
02
0>!
#510
1!
12
1>!
b1110 )"
#520
0!
02
0>!
#530
1!
12
1>!
b1111 )"
#540
0!
02
0>!
#550
1!
12
1>!
b10000 )"
b100011110111110100010011100000 (
b10100100011011100100100101101101 #
1$
1`!
1_!
1\!
0V!
0U!
1T!
0S!
1P!
1O!
0K!
0G!
0D!
1C!
1U
1T
1Q
0K
0J
1I
0H
1E
1D
0@
0<
09
18
0$"
1|!
0y!
1x!
0w!
0v!
0u!
1t!
1r!
1p!
1n!
1k!
1j!
1i!
0g!
0d!
0c!
0w
1q
0n
1m
0l
0k
0j
1i
1g
1e
1c
1`
1_
1^
0\
0Y
0X
14
1@!
b1 :!
b1 *
#560
0!
02
0>!
#570
1!
12
1>!
b10001 )"
1%
15
1A!
1("
b10 :!
b10 *
11
#580
0!
02
0>!
#590
1!
12
1>!
b10010 )"
b11 &"
1)
b11 /
17
#600
0!
02
0>!
#610
1!
12
1>!
b10011 )"
b100 &"
b10 ;!
0%
0$
b10 +
b100 /
05
0A!
04
0@!
0("
b0 :!
b0 *
01
0)
07
#620
0!
02
0>!
#630
1!
12
1>!
b10100 )"
#640
0!
02
0>!
#650
1!
12
1>!
b10101 )"
#660
0!
02
0>!
#670
1!
12
1>!
b10110 )"
b0 (
0&
b111000101110111011111000011001 #
1$
06
0B!
0`!
1^!
0]!
0\!
0Z!
1Y!
1X!
1V!
1U!
0T!
1S!
1R!
0P!
1N!
0L!
1K!
0H!
1G!
1F!
0C!
0U
1S
0R
0Q
0O
1N
1M
1K
1J
0I
1H
1G
0E
1C
0A
1@
0=
1<
1;
08
0}!
0|!
0{!
0x!
0t!
0r!
0q!
0p!
0o!
0n!
0l!
0k!
0j!
0i!
0e!
0r
0q
0p
0m
0i
0g
0f
0e
0d
0c
0a
0`
0_
0^
0Z
14
1@!
b1 :!
b1 *
#680
0!
02
0>!
#690
1!
12
1>!
b10111 )"
1%
15
1A!
1("
b10 :!
b10 *
11
#700
0!
02
0>!
#710
1!
12
1>!
b11000 )"
b1 '"
b1100010100101011101000111001001 '
1)
b1 0
19!
16!
13!
12!
11!
1-!
1+!
1*!
1)!
1'!
1%!
1"!
1~
1z
1y
17
#720
0!
02
0>!
#730
1!
12
1>!
b11001 )"
b10 '"
b1 <!
0%
0$
b1 ,
b10 0
05
0A!
04
0@!
0("
b0 :!
b0 *
01
0)
07
#740
0!
02
0>!
#750
1!
12
1>!
b11010 )"
#760
0!
02
0>!
#770
1!
12
1>!
b11011 )"
#780
0!
02
0>!
#790
1!
12
1>!
b11100 )"
#800
0!
02
0>!
#810
1!
12
1>!
b11101 )"
#820
0!
02
0>!
#830
1!
12
1>!
b11110 )"
#840
0!
02
0>!
#850
1!
12
1>!
b11111 )"
#860
0!
02
0>!
#870
1!
12
1>!
b100000 )"
#880
0!
02
0>!
#890
1!
12
1>!
b100001 )"
#900
0!
02
0>!
#910
1!
12
1>!
b100010 )"
#920
0!
02
0>!
#930
1!
12
1>!
b100011 )"
b10001011010010100000111101111 (
1&
b11110011111110111110001110011100 #
1$
16
1B!
0b!
1`!
1[!
1Z!
0X!
0W!
0V!
1T!
1L!
1J!
1I!
0G!
1D!
1C!
0W
1U
1P
1O
0M
0L
0K
1I
1A
1?
1>
0<
19
18
1$"
1#"
1""
1!"
1}!
1|!
1{!
1z!
1t!
1r!
1o!
1m!
1l!
1j!
1f!
1w
1v
1u
1t
1r
1q
1p
1o
1i
1g
1d
1b
1a
1_
1[
14
1@!
b1 :!
b1 *
#940
0!
02
0>!
#950
1!
12
1>!
b100100 )"
1%
15
1A!
1("
b10 :!
b10 *
11
#960
0!
02
0>!
#970
1!
12
1>!
b100101 )"
b101 &"
b0 '
1)
b101 /
09!
06!
03!
02!
01!
0-!
0+!
0*!
0)!
0'!
0%!
0"!
0~
0z
0y
17
#980
0!
02
0>!
#990
1!
12
1>!
b100110 )"
b110 &"
b11 ;!
0%
0$
b11 +
b110 /
05
0A!
04
0@!
0("
b0 :!
b0 *
01
0)
07
#1000
0!
02
0>!
#1010
1!
12
1>!
b100111 )"
#1020
0!
02
0>!
#1030
1!
12
1>!
b101000 )"
#1040
0!
02
0>!
#1050
1!
12
1>!
b101001 )"
#1060
0!
02
0>!
#1070
1!
12
1>!
b101010 )"
#1080
0!
02
0>!
#1090
1!
12
1>!
b101011 )"
#1100
0!
02
0>!
#1110
1!
12
1>!
b101100 )"
#1120
0!
02
0>!
#1130
1!
12
1>!
b101101 )"
#1140
0!
02
0>!
#1150
1!
12
1>!
b101110 )"
#1160
0!
02
0>!
#1170
1!
12
1>!
b101111 )"
b1001011100111001010010101010000 (
b10101101110001110010001101111011 #
1$
1b!
1a!
0`!
1]!
1\!
0[!
0T!
0S!
1P!
0O!
0N!
0M!
0I!
1H!
1G!
0F!
0D!
1W
1V
0U
1R
1Q
0P
0I
0H
1E
0D
0C
0B
0>
1=
1<
0;
09
0$"
0#"
0""
0!"
1~!
0}!
0{!
1x!
1u!
0t!
1s!
0r!
1p!
1n!
0m!
0l!
1k!
1i!
1g!
0f!
1d!
0w
0v
0u
0t
1s
0r
0p
1m
1j
0i
1h
0g
1e
1c
0b
0a
1`
1^
1\
0[
1Y
14
1@!
b1 :!
b1 *
#1180
0!
02
0>!
#1190
1!
12
1>!
b110000 )"
1%
15
1A!
1("
b10 :!
b10 *
11
#1200
0!
02
0>!
#1210
1!
12
1>!
b110001 )"
b111 &"
1)
b111 /
17
#1220
0!
02
0>!
#1230
1!
12
1>!
b110010 )"
b1000 &"
b100 ;!
0%
0$
b100 +
b1000 /
05
0A!
04
0@!
0("
b0 :!
b0 *
01
0)
07
#1240
0!
02
0>!
#1250
1!
12
1>!
b110011 )"
#1260
0!
02
0>!
#1270
1!
12
1>!
b110100 )"
#1280
0!
02
0>!
#1290
1!
12
1>!
b110101 )"
#1300
0!
02
0>!
#1310
1!
12
1>!
b110110 )"
#1320
0!
02
0>!
#1330
1!
12
1>!
b110111 )"
b10011010111100101000101000100 (
b10011111101110001000100001000010 #
1$
0b!
0_!
0^!
0]!
0Z!
0Y!
1W!
0U!
1S!
0R!
0Q!
0P!
1O!
1N!
1M!
0L!
1I!
1F!
0E!
0W
0T
0S
0R
0O
0N
1L
0J
1H
0G
0F
0E
1D
1C
1B
0A
1>
1;
0:
1""
0~!
0x!
1v!
0u!
1t!
0s!
1q!
1l!
0k!
0g!
1f!
0d!
1u
0s
0m
1k
0j
1i
0h
1f
1a
0`
0\
1[
0Y
14
1@!
b1 :!
b1 *
#1340
0!
02
0>!
